<?xml version="1.0" encoding="UTF-8" standalone="no"?>
<!DOCTYPE svg PUBLIC "-//W3C//DTD SVG 1.1//EN" "http://www.w3.org/Graphics/SVG/1.1/DTD/svg11.dtd">
<svg width="100%" height="100%" viewBox="0 0 1792 1792" version="1.1" xmlns="http://www.w3.org/2000/svg" xmlns:xlink="http://www.w3.org/1999/xlink" xml:space="preserve" xmlns:serif="http://www.serif.com/" style="fill-rule:evenodd;clip-rule:evenodd;stroke-linejoin:round;stroke-miterlimit:1.41421;">
    <rect id="backgroundrect" x="0" y="0" width="1" height="1" style="fill:none;"/>
    <path id="svg_1" d="M1472,930L1472,1248C1472,1327.33 1443.83,1395.17 1387.5,1451.5C1331.17,1507.83 1263.33,1536 1184,1536L352,1536C272.667,1536 204.833,1507.83 148.5,1451.5C92.167,1395.17 64,1327.33 64,1248L64,416C64,336.667 92.167,268.833 148.5,212.5C204.833,156.167 272.667,128 352,128L1184,128C1226,128 1265,136.333 1301,153C1311,157.667 1317,165.333 1319,176C1321,187.333 1318,197 1310,205L1261,254C1254.33,260.667 1246.67,264 1238,264C1236,264 1233,263.333 1229,262C1213.67,258 1198.67,256 1184,256L352,256C308,256 270.333,271.667 239,303C207.667,334.333 192,372 192,416L192,1248C192,1292 207.667,1329.67 239,1361C270.333,1392.33 308,1408 352,1408L1184,1408C1228,1408 1265.67,1392.33 1297,1361C1328.33,1329.67 1344,1292 1344,1248L1344,994C1344,985.333 1347,978 1353,972L1417,908C1423.67,901.333 1431.33,898 1440,898C1444,898 1448,899 1452,901C1465.33,906.333 1472,916 1472,930ZM1703,441L889,1255C873,1271 854,1279 832,1279C810,1279 791,1271 775,1255L345,825C329,809 321,790 321,768C321,746 329,727 345,711L455,601C471,585 490,577 512,577C534,577 553,585 569,601L832,864L1479,217C1495,201 1514,193 1536,193C1558,193 1577,201 1593,217L1703,327C1719,343 1727,362 1727,384C1727,406 1719,425 1703,441Z" style="fill:rgb(208,16,44);fill-rule:nonzero;"/>
</svg>
